111743 769577 509
859527 632870 525
593281 446932 470
90480 73188 351
883166 611499 525
942023 797217 525
145091 683031 509
506913 54103 449
893098 882963 445
377604 772869 509
496982 334339 449
805875 487802 509
494302 534556 470
866819 429680 525
788629 46308 509
666278 178758 509
697592 756997 504
716437 209070 509
570168 111711 470
132634 738379 509
351441 765313 509
661994 488367 509
866955 308393 525
996415 543387 525
484957 618643 470
68092 276838 443
674549 480444 509
398963 509404 449
129278 199946 383
205103 271558 443
60941 513307 470
964929 890987 507
266595 251724 407
260973 662451 509
665263 253384 509
98620 299450 443
18739 117534 354
750030 238199 509
156356 385798 443
598749 708073 509
3629 398193 443
324993 439591 449
321271 901208 525
92817 979312 525
198805 184874 360
200901 906448 525
96301 668724 509
238680 605365 470
225861 974620 525
960063 639244 525
580767 737188 509
492354 59757 449
151572 93705 375
989409 659042 525
790312 439025 509
858683 635031 525
982271 284822 525
542855 457913 470
413104 913025 525
198200 633441 509
659174 271598 509
563582 812967 509
101728 367193 443
754828 102372 509
733821 591577 509
174939 313089 443
884898 530594 525
669798 895790 525
34266 195258 383
355885 453475 449
81865 929518 525
953265 350094 525
367406 308949 441
230539 603783 470
479456 873748 525
664982 499558 509
705343 63369 509
736990 474144 509
736744 359787 509
330007 215205 443
488183 533889 470
958665 811681 525
78943 361620 443
630109 969933 525
953084 938108 507
767996 601008 509
827665 885301 525
701263 779088 504
776265 900706 525
93727 135580 354
601420 231452 470
955619 339530 525
44311 955411 525
832557 992687 525
866068 640651 525
613768 641018 509
641890 187585 509
165902 968736 525
995105 425855 525
560678 638646 509
96853 37022 351
864948 379975 525
814528 287166 509
320159 458894 449
764440 605423 509
943420 160712 525
751671 277043 509
951153 511021 525
395502 860587 525
312230 75222 443
729036 264652 509
757483 128750 509
148393 947523 525
762582 823045 468
657883 864435 525
199888 737104 509
611260 267260 470
172345 348243 443
548199 395692 470
783436 545997 509
364391 513438 470
678631 205275 509
369378 805618 509
348341 572382 470
549339 879472 525
975439 50807 525
754721 373634 509
300800 974686 525
101081 817397 509
163430 813715 509
975027 641303 525
592623 51589 470
498837 955478 525
856121 78083 525
699538 909390 525
574439 477989 470
601677 102397 470
513158 150085 470
833454 664799 504
657121 523235 509
720020 796714 468
69188 53641 335
696338 397702 509
725699 150200 509
398061 328128 441
396354 964938 525
299729 166344 443
454824 558190 470
278857 755292 509
392073 285707 441
506235 556871 470
713527 145565 509
924035 35887 525
645528 961074 525
376641 547334 470
601796 283494 470
655520 533452 509
487393 347879 449
343045 235241 407
911537 421348 525
806139 143153 509
536050 289615 470
546870 484705 470
883218 2865 525
432816 105169 449
122156 970526 525
215716 158518 373
251673 877985 525
595011 48332 470
51850 409608 443
127709 586305 470
793345 543666 509
970148 635407 525
604291 644153 509
38332 12146 324
584683 90106 470
830115 492455 509
961052 694949 525
467669 5059 449
937835 106092 525
359014 654272 509
513927 63557 470
180565 15632 383
671311 596335 509
708599 243340 509
358304 975380 525
904641 250685 525
441550 198940 449
337591 999167 525
909799 95026 525
263596 589755 470
921817 196160 525
81769 689320 509
390001 446382 449
74074 124316 354
687328 31169 509
96827 673537 509
778059 864845 525
848416 558562 525
458183 380913 449
908198 900249 445
740022 64716 509
652542 736975 504
391045 778988 509
572503 941667 525
788699 434421 509
756965 903772 525
426339 738672 509
316003 960854 525
222812 325297 443
888300 81962 525
269374 461612 449
554380 763119 509
364167 888620 525
492654 886122 525
105850 646641 509
205093 356251 443
330919 80219 443
485976 126674 449
651285 622003 509
427978 832053 509
790074 521029 509
953789 235386 525
637906 710902 504
908975 345207 525
541957 705643 509
489707 855986 525
934846 381677 525
426198 942981 525
710867 530820 509
676340 436839 509
228307 271149 443
114466 493588 449
771406 551016 509
492779 223058 449
831480 989297 525
146222 284580 443
791267 800235 468
155011 337572 443
960364 378084 525
593164 964261 525
747127 605668 509
250168 647573 509
6141 566424 470
