1 10 20
1 100 119
100 200 125
1000 2000 182
4000 10000 262
495067 847115 525
653096 697303 442
903340 701076 525
748923 521515 509
327262 249436 407
198236 684772 509
309007 910635 525
288119 2755 443
238349 800866 509
235178 855772 525
342993 391055 441
786944 921703 525
82687 798046 509
156882 85420 383
340511 534328 470
932446 181467 525
682071 761411 504
824671 532681 509
981305 159842 525
626155 791536 509
382300 51575 443
346833 467342 449
584857 231068 470
665024 846150 525
110380 406877 443
288655 478780 449
258116 26731 443
845303 636149 525
363951 611202 470
395549 244956 441
957792 126247 525
86572 416455 449
688845 733681 504
370679 19930 443
562316 59266 470
42179 637089 509
157949 174381 370
480167 859174 525
807785 26726 509
690285 572036 509
565357 343402 470
875810 316158 525
245339 104982 443
844263 819440 525
855265 719086 525
43831 27665 324
578118 862088 525
329254 326190 353
733032 672983 504
483293 407157 449
948576 893082 507
847068 856975 419
930859 504897 525
713845 663987 504
567941 779207 509
211270 252887 443
653082 25061 509
957848 196293 525
336596 428118 449
880452 782125 525
909361 545724 525
137480 872864 525
612726 556264 434
661459 343457 509
185501 36763 383
912009 900754 476
198994 750406 509
368690 805893 509
891222 467696 525
48613 938485 525
883122 612627 525
467777 601072 470
492070 93855 449
598000 16624 470
296789 111661 443
205341 396445 443
789236 323895 509
75460 766295 509
844889 531410 525
121515 120766 274
564199 7038 470
540906 661858 509
830320 916263 525
554263 387452 470
761632 768331 468
385426 442928 449
986430 173583 525
210214 833746 509
875145 858983 432
959167 739274 525
48614 800025 509
716929 265186 509
592027 682201 509
209727 869902 525
367837 370513 392
727432 567144 509
477522 880755 525
20387 41685 324
78996 181090 383
748046 3378 509
367369 933939 525
307344 120664 443
559084 843319 525
900310 232053 525
1262 783598 509
175464 234481 443
529670 852332 525
915913 505780 525
685205 389820 509
61112 213792 383
776751 67004 509
488091 16142 449
743323 758341 424
581382 208846 470
622134 720755 509
437944 387947 449
72009 70687 325
743374 40357 509
358961 424033 449
331197 683490 509
797542 345133 509
327899 112217 443
407920 80176 443
943447 680397 525
646499 940410 525
772747 326234 509
107918 911771 525
46740 555439 470
818083 262344 509
959570 714542 525
459086 502973 444
963189 335192 525
528395 433515 470
54534 559289 470
89809 158255 383
390214 39847 443
803149 464443 509
878055 371522 525
576581 207323 470
600380 725970 509
410535 312376 449
37942 582187 470
165470 837199 509
27340 262408 443
451442 374899 449
126848 573720 470
358457 123521 443
542513 55850 470
952106 200908 525
519556 694185 509
512868 353865 470
304699 275304 389
800513 280381 509
52202 102337 351
320894 919955 525
119564 338899 443
650333 355345 509
287258 418482 449
844838 891667 445
621731 312225 470
334618 146635 443
294878 182373 443
814889 939165 525
616401 622183 372
439251 488885 444
329443 198149 443
418191 221887 449
740433 169275 509
654233 300008 509
412001 468084 444
13193 234043 443
987426 592533 525
320264 461636 449
389231 176539 443
939509 38921 525
332814 288977 384
625417 12453 470
650180 632479 416
792514 285377 509
665217 135969 509
10751 484287 449
191484 443620 449
305381 998506 525
864457 726521 525
559637 255676 470
345157 887918 525
303262 497765 449
497708 834497 509
626020 828365 509
579017 861791 525
956850 926754 507
700980 765494 504
862193 112040 525
580663 872777 525
651606 283835 509
155798 763357 509
153701 823287 509
950304 460190 525
883433 38417 525
36440 819204 509
506569 530617 470
836421 270153 509
622034 176467 470
549764 728168 509
752749 330851 509
89320 914577 525
92758 146759 375
476379 573728 470
208701 513458 470
596569 507303 470
238307 86705 443
62222 839091 525
856482 604293 525
894422 626618 525
644727 838453 525
45370 349083 443
931755 156012 525
283282 512689 470
725116 718424 411
938100 137745 525
826919 705712 468
160922 495037 449
370172 79208 443
521573 493556 470
109294 192519 383
152677 616410 470
622695 316977 470
807155 761458 468
840697 555827 525
506874 221020 449
551543 59757 470
443755 889848 525
